<svg width="35" height="36" viewBox="0 0 35 36" fill="none" xmlns="http://www.w3.org/2000/svg">
<g clip-path="url(#clip0)">
<path d="M17.5 0.5C7.83649 0.5 0 8.33649 0 18C0 27.6635 7.83649 35.5 17.5 35.5C27.1635 35.5 35 27.6635 35 18C35 8.33649 27.1635 0.5 17.5 0.5ZM25.4903 14.1446C25.498 14.3169 25.5018 14.4899 25.5018 14.6637C25.5018 19.9715 21.4616 26.092 14.0732 26.0923H14.0735H14.0732C11.8048 26.0923 9.69395 25.4274 7.91634 24.288C8.23063 24.3251 8.55053 24.3435 8.87444 24.3435C10.7565 24.3435 12.4884 23.7016 13.8633 22.6241C12.1049 22.5916 10.6224 21.4303 10.1108 19.8342C10.3556 19.8812 10.6075 19.9069 10.8657 19.9069C11.2323 19.9069 11.5874 19.8575 11.925 19.7653C10.087 19.3974 8.70247 17.773 8.70247 15.828C8.70247 15.8098 8.70247 15.7935 8.703 15.7767C9.24427 16.0777 9.86324 16.2587 10.5223 16.279C9.44374 15.5594 8.73478 14.3292 8.73478 12.9355C8.73478 12.1996 8.93372 11.5101 9.27872 10.9165C11.2595 13.347 14.2198 14.9455 17.5582 15.1134C17.4893 14.8192 17.4538 14.5126 17.4538 14.1975C17.4538 11.9801 19.2528 10.1811 21.471 10.1811C22.6264 10.1811 23.67 10.6695 24.403 11.4503C25.3181 11.2698 26.1774 10.9355 26.9536 10.4754C26.6532 11.4129 26.0166 12.1996 25.1872 12.6971C25.9998 12.5999 26.7742 12.3844 27.4938 12.0645C26.9563 12.8701 26.2746 13.5777 25.4903 14.1446Z" fill="#999999"/>
</g>
<defs>
<clipPath id="clip0">
<rect width="35" height="35" fill="white" transform="translate(0 0.5)"/>
</clipPath>
</defs>
</svg>
